D:\DEV\WS\J2EE\testtask\src\main\java\com\testtask\dao\UserRepository.java
D:\DEV\WS\J2EE\testtask\src\main\java\com\testtask\listener\AuthenticationFilter.java
D:\DEV\WS\J2EE\testtask\src\main\java\com\testtask\listener\CustomLogoutSuccessHandler.java
D:\DEV\WS\J2EE\testtask\src\main\java\com\testtask\model\Role.java
D:\DEV\WS\J2EE\testtask\src\main\java\com\testtask\listener\LoginSuccessListener.java
D:\DEV\WS\J2EE\testtask\src\main\java\com\testtask\AppStarter.java
D:\DEV\WS\J2EE\testtask\src\main\java\com\testtask\controller\LoginController.java
D:\DEV\WS\J2EE\testtask\src\main\java\com\testtask\service\UserService.java
D:\DEV\WS\J2EE\testtask\src\main\java\com\testtask\listener\CaptchaAuthenticationProvider.java
D:\DEV\WS\J2EE\testtask\src\main\java\com\testtask\model\User.java
D:\DEV\WS\J2EE\testtask\src\main\java\com\testtask\config\SecurityConfig.java
D:\DEV\WS\J2EE\testtask\src\main\java\com\testtask\controller\PageController.java
D:\DEV\WS\J2EE\testtask\src\main\java\com\testtask\model\Recaptcha.java
D:\DEV\WS\J2EE\testtask\src\main\java\com\testtask\listener\LoginFailureListener.java
